…
To choose rows based on specific criteria, we can use the `filter()`
function. The argument after the dataframe is the condition we want our
final dataframe to adhere to (e.g. village name is Chirodzo):


``` r
# filters observations where village name is "Chirodzo"
filter(interviews, village == "Chirodzo")
```

``` output
# A tibble: 39 × 14
   key_ID village  interview_date      no_membrs years_liv respondent_wall_type
    <dbl> <chr>    <dttm>                  <dbl>     <dbl> <chr>               
 1      8 Chirodzo 2016-11-16 00:00:00        12        70 burntbricks         
 2      9 Chirodzo 2016-11-16 00:00:00         8         6 burntbricks         
 3     10 Chirodzo 2016-12-16 00:00:00        12        23 burntbricks         
 4     34 Chirodzo 2016-11-17 00:00:00         8        18 burntbricks         
 5     35 Chirodzo 2016-11-17 00:00:00         5        45 muddaub             
 6     36 Chirodzo 2016-11-17 00:00:00         6        23 sunbricks           
 7     37 Chirodzo 2016-11-17 00:00:00         3         8 burntbricks         
 8     43 Chirodzo 2016-11-17 00:00:00         7        29 muddaub             
 9     44 Chirodzo 2016-11-17 00:00:00         2         6 muddaub             
10     45 Chirodzo 2016-11-17 00:00:00         9         7 muddaub             
# ℹ 29 more rows
# ℹ 8 more variables: rooms <dbl>, memb_assoc <chr>, affect_conflicts <chr>,
#   liv_count <dbl>, items_owned <chr>, no_meals <dbl>, months_lack_food <chr>,
#   instanceID <chr>
```
…
In an "or" statement, observations must meet *at least one* of the
specified conditions. To form "or" statements we use the logical
operator for "or," which is the vertical bar (\|):


``` r
# filters observations with "|" logical operator
# output dataframe satisfies AT LEAST ONE of the specified conditions
filter(interviews, village == "Chirodzo" | village == "Ruaca")
```

``` output
# A tibble: 88 × 14
   key_ID village  interview_date      no_membrs years_liv respondent_wall_type
    <dbl> <chr>    <dttm>                  <dbl>     <dbl> <chr>               
 1      8 Chirodzo 2016-11-16 00:00:00        12        70 burntbricks         
 2      9 Chirodzo 2016-11-16 00:00:00         8         6 burntbricks         
 3     10 Chirodzo 2016-12-16 00:00:00        12        23 burntbricks         
 4     23 Ruaca    2016-11-21 00:00:00        10        20 burntbricks         
 5     24 Ruaca    2016-11-21 00:00:00         6         4 burntbricks         
 6     25 Ruaca    2016-11-21 00:00:00        11         6 burntbricks         
 7     26 Ruaca    2016-11-21 00:00:00         3        20 burntbricks         
 8     27 Ruaca    2016-11-21 00:00:00         7        36 burntbricks         
 9     28 Ruaca    2016-11-21 00:00:00         2         2 muddaub             
10     29 Ruaca    2016-11-21 00:00:00         7        10 burntbricks         
# ℹ 78 more rows
# ℹ 8 more variables: rooms <dbl>, memb_assoc <chr>, affect_conflicts <chr>,
#   liv_count <dbl>, items_owned <chr>, no_meals <dbl>, months_lack_food <chr>,
#   instanceID <chr>
```
…
-   <kbd>Ctrl</kbd> + <kbd>Shift</kbd> + <kbd>M</kbd> (Windows) or
    <kbd>Cmd</kbd> + <kbd>Shift</kbd> + <kbd>M</kbd> (Mac).


``` r
# the following example is run using magrittr pipe but the output will be same with the native pipe
interviews %>%
    filter(village == "Chirodzo") %>%
    select(village:respondent_wall_type)
```

``` output
# A tibble: 39 × 5
   village  interview_date      no_membrs years_liv respondent_wall_type
   <chr>    <dttm>                  <dbl>     <dbl> <chr>               
 1 Chirodzo 2016-11-16 00:00:00        12        70 burntbricks         
 2 Chirodzo 2016-11-16 00:00:00         8         6 burntbricks         
 3 Chirodzo 2016-12-16 00:00:00        12        23 burntbricks         
 4 Chirodzo 2016-11-17 00:00:00         8        18 burntbricks         
 5 Chirodzo 2016-11-17 00:00:00         5        45 muddaub             
 6 Chirodzo 2016-11-17 00:00:00         6        23 sunbricks           
 7 Chirodzo 2016-11-17 00:00:00         3         8 burntbricks         
 8 Chirodzo 2016-11-17 00:00:00         7        29 muddaub             
 9 Chirodzo 2016-11-17 00:00:00         2         6 muddaub             
10 Chirodzo 2016-11-17 00:00:00         9         7 muddaub             
# ℹ 29 more rows
```
…
If we want to create a new object with this smaller version of the data,
we can assign it a new name:


``` r
interviews_ch <- interviews %>%
    filter(village == "Chirodzo") %>%
    select(village:respondent_wall_type)

interviews_ch
```

``` output
# A tibble: 39 × 5
   village  interview_date      no_membrs years_liv respondent_wall_type
   <chr>    <dttm>                  <dbl>     <dbl> <chr>               
 1 Chirodzo 2016-11-16 00:00:00        12        70 burntbricks         
 2 Chirodzo 2016-11-16 00:00:00         8         6 burntbricks         
 3 Chirodzo 2016-12-16 00:00:00        12        23 burntbricks         
 4 Chirodzo 2016-11-17 00:00:00         8        18 burntbricks         
 5 Chirodzo 2016-11-17 00:00:00         5        45 muddaub             
 6 Chirodzo 2016-11-17 00:00:00         6        23 sunbricks           
 7 Chirodzo 2016-11-17 00:00:00         3         8 burntbricks         
 8 Chirodzo 2016-11-17 00:00:00         7        29 muddaub             
 9 Chirodzo 2016-11-17 00:00:00         2         6 muddaub             
10 Chirodzo 2016-11-17 00:00:00         9         7 muddaub             
# ℹ 29 more rows
```
…
::: solution
## Solution


``` r
interviews %>%
    filter(memb_assoc == "yes") %>%
    select(affect_conflicts, liv_count, no_meals)
```

``` output
# A tibble: 33 × 3
   affect_conflicts liv_count no_meals
   <chr>                <dbl>    <dbl>
 1 once                     3        2
 2 never                    2        2
 3 never                    2        3
 4 once                     3        2
 5 frequently               1        3
 6 more_once                5        2
 7 more_once                3        2
 8 more_once                2        3
 9 once                     3        3
10 never                    3        3
# ℹ 23 more rows
```
…
Frequently you'll want to create new columns based on the values in
existing columns, for example to do unit conversions, or to find the
ratio of values in two columns. For this we'll use `mutate()`.

We might be interested in the ratio of number of household members to
rooms used for sleeping (i.e. avg number of people per room):


``` r
interviews %>%
    mutate(people_per_room = no_membrs / rooms)
```

``` output
# A tibble: 131 × 15
   key_ID village  interview_date      no_membrs years_liv respondent_wall_type
    <dbl> <chr>    <dttm>                  <dbl>     <dbl> <chr>               
 1      1 God      2016-11-17 00:00:00         3         4 muddaub             
 2      2 God      2016-11-17 00:00:00         7         9 muddaub             
 3      3 God      2016-11-17 00:00:00        10        15 burntbricks         
 4      4 God      2016-11-17 00:00:00         7         6 burntbricks         
 5      5 God      2016-11-17 00:00:00         7        40 burntbricks         
 6      6 God      2016-11-17 00:00:00         3         3 muddaub             
 7      7 God      2016-11-17 00:00:00         6        38 muddaub             
 8      8 Chirodzo 2016-11-16 00:00:00        12        70 burntbricks         
 9      9 Chirodzo 2016-11-16 00:00:00         8         6 burntbricks         
10     10 Chirodzo 2016-12-16 00:00:00        12        23 burntbricks         
# ℹ 121 more rows
# ℹ 9 more variables: rooms <dbl>, memb_assoc <chr>, affect_conflicts <chr>,
#   liv_count <dbl>, items_owned <chr>, no_meals <dbl>, months_lack_food <chr>,
#   instanceID <chr>, people_per_room <dbl>
```
…
To remove these cases, we could insert a `filter()` in the chain:


``` r
interviews %>%
    filter(!is.na(memb_assoc)) %>%
    mutate(people_per_room = no_membrs / rooms)
```

``` output
# A tibble: 92 × 15
   key_ID village  interview_date      no_membrs years_liv respondent_wall_type
    <dbl> <chr>    <dttm>                  <dbl>     <dbl> <chr>               
 1      2 God      2016-11-17 00:00:00         7         9 muddaub             
 2      7 God      2016-11-17 00:00:00         6        38 muddaub             
 3      8 Chirodzo 2016-11-16 00:00:00        12        70 burntbricks         
 4      9 Chirodzo 2016-11-16 00:00:00         8         6 burntbricks         
 5     10 Chirodzo 2016-12-16 00:00:00        12        23 burntbricks         
 6     12 God      2016-11-21 00:00:00         7        20 burntbricks         
 7     13 God      2016-11-21 00:00:00         6         8 burntbricks         
 8     15 God      2016-11-21 00:00:00         5        30 sunbricks           
 9     21 God      2016-11-21 00:00:00         8        20 burntbricks         
10     24 Ruaca    2016-11-21 00:00:00         6         4 burntbricks         
# ℹ 82 more rows
# ℹ 9 more variables: rooms <dbl>, memb_assoc <chr>, affect_conflicts <chr>,
#   liv_count <dbl>, items_owned <chr>, no_meals <dbl>, months_lack_food <chr>,
#   instanceID <chr>, people_per_room <dbl>
```
…
::: solution
## Solution


``` r
interviews_long %>%
  filter(items_owned_logical) %>% 
  group_by(village) %>% 
  count(items_owned)
```

``` output
# A tibble: 47 × 3
# Groups:   village [3]
   village  items_owned         n
   <chr>    <chr>           <int>
 1 Chirodzo bicycle            17
 2 Chirodzo computer            2
 3 Chirodzo cow_cart            6
 4 Chirodzo cow_plough         20
 5 Chirodzo electricity         1
 6 Chirodzo fridge              1
 7 Chirodzo lorry               1
 8 Chirodzo mobile_phone       25
 9 Chirodzo motorcyle          13
10 Chirodzo no_listed_items     3
# ℹ 37 more rows
```
…
