…
``` r
interviews
## Try also
## view(interviews)
## head(interviews)
```

``` output
# A tibble: 131 × 14
   key_ID village  interview_date      no_membrs years_liv respondent_wall_type
    <dbl> <chr>    <dttm>                  <dbl>     <dbl> <chr>               
 1      1 God      2016-11-17 00:00:00         3         4 muddaub             
 2      2 God      2016-11-17 00:00:00         7         9 muddaub             
 3      3 God      2016-11-17 00:00:00        10        15 burntbricks         
 4      4 God      2016-11-17 00:00:00         7         6 burntbricks         
 5      5 God      2016-11-17 00:00:00         7        40 burntbricks         
 6      6 God      2016-11-17 00:00:00         3         3 muddaub             
 7      7 God      2016-11-17 00:00:00         6        38 muddaub             
 8      8 Chirodzo 2016-11-16 00:00:00        12        70 burntbricks         
 9      9 Chirodzo 2016-11-16 00:00:00         8         6 burntbricks         
10     10 Chirodzo 2016-12-16 00:00:00        12        23 burntbricks         
# ℹ 121 more rows
# ℹ 8 more variables: rooms <dbl>, memb_assoc <chr>, affect_conflicts <chr>,
#   liv_count <dbl>, items_owned <chr>, no_meals <dbl>, months_lack_food <chr>,
#   instanceID <chr>
```
…
When we imported the data in `R`, `read_csv()` recognized that this column
contained date information. We can now use the `day()`, `month()` and
`year()` functions to extract this information from the date, and create
new columns in our data frame to store it:


``` r
interviews$day <- day(dates)
interviews$month <- month(dates)
interviews$year <- year(dates)
interviews
```

``` output
# A tibble: 131 × 17
   key_ID village  interview_date      no_membrs years_liv respondent_wall_type
    <dbl> <chr>    <dttm>                  <dbl>     <dbl> <chr>               
 1      1 God      2016-11-17 00:00:00         3         4 muddaub             
 2      2 God      2016-11-17 00:00:00         7         9 muddaub             
 3      3 God      2016-11-17 00:00:00        10        15 burntbricks         
 4      4 God      2016-11-17 00:00:00         7         6 burntbricks         
 5      5 God      2016-11-17 00:00:00         7        40 burntbricks         
 6      6 God      2016-11-17 00:00:00         3         3 muddaub             
 7      7 God      2016-11-17 00:00:00         6        38 muddaub             
 8      8 Chirodzo 2016-11-16 00:00:00        12        70 burntbricks         
 9      9 Chirodzo 2016-11-16 00:00:00         8         6 burntbricks         
10     10 Chirodzo 2016-12-16 00:00:00        12        23 burntbricks         
# ℹ 121 more rows
# ℹ 11 more variables: rooms <dbl>, memb_assoc <chr>, affect_conflicts <chr>,
#   liv_count <dbl>, items_owned <chr>, no_meals <dbl>, months_lack_food <chr>,
#   instanceID <chr>, day <int>, month <dbl>, year <dbl>
```
…
